{
  "service_name"        : "Simulation_Real_Mode_demo",
  "service_description" : "This service can be used to test switching between simulation and real mode",
  "authors"             : "Timm Severin, Lukas Bromig",
  "creation_date"       : "2019-07-15s",
  "version"             : "1.0",
  "vendor_url"          : "www.biovt.mw.tum.de",
  "SiLA_standard_feature_list" : ["SiLAService"],
  "SiLA_feature_list"   : ["GreetingProvider"],
  "communication_port"  : "50051",
  "IP_address"          : "127.0.0.1",
  "hostname"            : "localhost"
}
